{
  "code": 0,
  "data": {
    "total": 58,
    "per_page": "2",
    "current_page": 4,
    "last_page": 29,
    "next_page_url": "http://zdongpin.main.com/order/appraise/goods/list?=5",
    "prev_page_url": "http://zdongpin.main.com/order/appraise/goods/list?=3",
    "from": 7,
    "to": 8,
    "data":[
      {
        "id": 4551,
        "goods_id": 2356,
        "buyers_id": 9136,
        "content": "可以",
        "replay": "感谢支持……感谢支持……感谢支持……感谢支持……感谢支持……感谢支持……感谢支持……感谢支持……感谢支持……感谢支持……感谢支持……感谢支持……感谢支持……感谢支持……感谢支持……感谢支持……感谢支持……感谢支持……",
        "praises_num": 28,
        "sub_order_no": "91361474342465EfOlCjSd-0",
        "created_at": "2016-09-20 19:18:07",
        "updated_at": "2016-09-20 19:18:07",
        "quality": 5,
        "goods": {
          "id": 2356,
          "gname": "渝达鸭肠12kg",
          "specification": "1件*12袋"
        },
        "buyer": {
          "shId": 9136,
          "unionName": "A荣华",
          "unionPic": "http://wx.qlogo.cn/mmopen/PiajxSqBRaEL9wNXSea4iakeNE3T7V8UvtF6gtwiaSvMWnOmdN7ruEkM4pPDaDWibkLkib31mJHUMkXDZOjzFNZIvfw/0"
        },
        "appraise_img": [],
        "praise": [
          {
            "appraises_id": 4551,
            "user_id": 9136
          }
        ],
        "score": 5,
        "addContent1": [
          {
            "content": "货还是很正的，谢谢找冻品网提供评价功能",
            "replay": null
          }
        ],
        "addContent": [
          {
            "content": "货还是很正的，谢谢找冻品网提供评价功能",
            "replay": null
          }
        ]
      },
      {
        "id": 4591,
        "goods_id": 2356,
        "buyers_id": 9136,
        "content": "这件货真的很不错呢……老板人好=……这件货真的很不错呢……老板人好=……这件货真的很不错呢……老板人好=……",
        "replay": null,
        "praises_num": 0,
        "sub_order_no": "91361474342465EfOlCjSd-0",
        "created_at": "2016-09-20 19:18:07",
        "updated_at": "2016-09-20 19:18:07",
        "quality": 5,
        "goods": {
          "id": 2356,
          "gname": "渝达鸭肠  77kg",
          "specification": "1件*12袋"
        },
        "buyer": {
          "shId": 9136,
          "unionName": "姓名姓名",
          "unionPic": "http://wx.qlogo.cn/mmopen/PiajxSqBRaEL9wNXSea4iakeNE3T7V8UvtF6gtwiaSvMWnOmdN7ruEkM4pPDaDWibkLkib31mJHUMkXDZOjzFNZIvfw/0"
        },
        "appraise_img": [
          {
            "appraise_id": 4551,
            "img_url": "https://timgsa.baidu.com/timg?image&quality=80&size=b9999_10000&sec=1503884722&di=8730c297852c8dd92cedfc9b160308a3&imgtype=jpg&er=1&src=http%3A%2F%2Fi.zeze.com%2Fattachment%2Fforum%2F201701%2F27%2F123531f0yqpsqcqc114zny.jpg"
          },
          {
            "appraise_id": 4551,
            "img_url": "https://timgsa.baidu.com/timg?image&quality=80&size=b9999_10000&sec=1503884747&di=5cb43942009a5b47524e9e9f308d11cc&imgtype=jpg&er=1&src=http%3A%2F%2Fscience.china.com.cn%2Fimages%2Fattachement%2Fpng%2Fsite555%2F20160330%2Fe89a8ffb13931865a6e94b.PNG"
          },
          {
            "appraise_id": 4351,
            "img_url": "https://ss0.bdstatic.com/70cFvHSh_Q1YnxGkpoWK1HF6hhy/it/u=4188578854,5096636&fm=26&gp=0.jpg"
          },
          {
            "appraise_id": 4351,
            "img_url": "https://timgsa.baidu.com/timg?image&quality=80&size=b9999_10000&sec=1503884783&di=210956ac739840f55bbdd906aeadf65b&imgtype=jpg&er=1&src=http%3A%2F%2Fcdn.duitang.com%2Fuploads%2Fitem%2F201411%2F22%2F20141122204216_hHHYL.png"
          }
        ],
        "praise": [
        ],
        "score": 5,
        "addContent": [
          {
            "content": "货还是很正的，谢谢找冻品网提供评价功能",
            "replay": "感谢支持"
          }
        ]
      }
    ],
    "diffGrade": {
      "allCount": 56,
      "goodCount": 36,
      "mediumCount": 18,
      "poorCount": 2,
      "imgCount": 1
    }
  },
  "message": "ok"
}